{
  "env": "dev",
  "organization": "starter",

  "jdbc": {
    "database": "starter",
    "url": "jdbc:mariadb://localhost:3306",
    "user": "root",
    "password": "root"
  },

  "mongo": {

  },

  "redis" : {

  },

  "http_server": {
    "host": "localhost",
    "port": 8080,
    "ssl_cert_file": "/Users/shilong.zhaoshowpad.com/IdeaProjects/vertx-bazel-kotlin/api/src/main/resources/openssl/certificate.crt",
    "ssl_key_file": "/Users/shilong.zhaoshowpad.com/IdeaProjects/vertx-bazel-kotlin/api/src/main/resources/openssl/private.key"
  },

  "tcp_server": {

  }
}
